{
  "project_info": {
    "project_number": "226019022231",
    "firebase_url": "https://tribe-92705.firebaseio.com",
    "project_id": "tribe-92705",
    "storage_bucket": "tribe-92705.appspot.com"
  },
  "client": [
    {
      "client_info": {
        "mobilesdk_app_id": "1:226019022231:android:4e7755339f184fc0",
        "android_client_info": {
          "package_name": "com.Sunblock.Tribe"
        }
      },
      "oauth_client": [
        {
          "client_id": "226019022231-d7mdkv930po2dsd3vvft9au6cte8f36h.apps.googleusercontent.com",
          "client_type": 3
        }
      ],
      "api_key": [
        {
          "current_key": "AIzaSyA8kZJ8iTnPOmuB24Dt9382XqT2LwxT1aQ"
        }
      ],
      "services": {
        "analytics_service": {
          "status": 1
        },
        "appinvite_service": {
          "status": 1,
          "other_platform_oauth_client": []
        },
        "ads_service": {
          "status": 2
        }
      }
    }
  ],
  "configuration_version": "1"
}