%YAML 1.1
%TAG !u! tag:unity3d.com,2011:
--- !u!114 &11400000
MonoBehaviour:
  m_ObjectHideFlags: 0
  m_PrefabParentObject: {fileID: 0}
  m_PrefabInternal: {fileID: 0}
  m_GameObject: {fileID: 0}
  m_Enabled: 1
  m_EditorHideFlags: 0
  m_Script: {fileID: 11500000, guid: ba2db5bac6dbc4813ba1d0a4dcd05f69, type: 3}
  m_Name: Level_0
  m_EditorClassIdentifier: 
  tiles:
  - {x: 1, y: 1, z: 0}
  - {x: 1, y: 1, z: 1}
  - {x: 1, y: 3, z: 2}
  - {x: 1, y: 2, z: 3}
  - {x: 1, y: 1, z: 4}
  - {x: 0, y: 1, z: 0}
  - {x: 0, y: 1, z: 1}
  - {x: 0, y: 1, z: 2}
  - {x: 2, y: 2, z: 0}
  - {x: 3, y: 2, z: 0}
  - {x: 4, y: 2, z: 0}
  - {x: 2, y: 2, z: 1}
  - {x: 3, y: 2, z: 1}
  - {x: 4, y: 2, z: 1}
  - {x: 2, y: 2, z: 2}
  - {x: 3, y: 2, z: 2}
  - {x: 4, y: 1, z: 2}
  - {x: 2, y: 1, z: 3}
  - {x: 3, y: 1, z: 3}
  - {x: 4, y: 1, z: 3}
  - {x: 2, y: 1, z: 4}
  - {x: 3, y: 1, z: 4}
  - {x: 4, y: 1, z: 4}
  - {x: 0, y: 1, z: 3}
  - {x: 0, y: 1, z: 4}
